%YAML 1.1
%TAG !u! tag:unity3d.com,2011:
--- !u!33 &2451725361876510027
MeshFilter:
  m_ObjectHideFlags: 0
  m_CorrespondingSourceObject: {fileID: 0}
  m_PrefabInstance: {fileID: 0}
  m_PrefabAsset: {fileID: 0}
  m_GameObject: {fileID: 928925201990875272}
  m_Mesh: {fileID: -7933145644325918270, guid: 5e68804128d7e4ad5b215d41cf41150e, type: 3}
--- !u!23 &6533582544068138080
MeshRenderer:
  m_ObjectHideFlags: 0
  m_CorrespondingSourceObject: {fileID: 0}
  m_PrefabInstance: {fileID: 0}
  m_PrefabAsset: {fileID: 0}
  m_GameObject: {fileID: 928925201990875272}
  m_Enabled: 1
  m_CastShadows: 1
  m_ReceiveShadows: 1
  m_DynamicOccludee: 1
  m_MotionVectors: 1
  m_LightProbeUsage: 1
  m_ReflectionProbeUsage: 1
  m_RenderingLayerMask: 1
  m_RendererPriority: 0
  m_Materials:
  - {fileID: 2100000, guid: 02a4e750351384d329bc471b9575ec7b, type: 2}
  m_StaticBatchInfo:
    firstSubMesh: 0
    subMeshCount: 0
  m_StaticBatchRoot: {fileID: 0}
  m_ProbeAnchor: {fileID: 0}
  m_LightProbeVolumeOverride: {fileID: 0}
  m_ScaleInLightmap: 1
  m_ReceiveGI: 1
  m_PreserveUVs: 0
  m_IgnoreNormalsForChartDetection: 0
  m_ImportantGI: 0
  m_StitchLightmapSeams: 1
  m_SelectedEditorRenderState: 3
  m_MinimumChartSize: 4
  m_AutoUVMaxDistance: 0.5
  m_AutoUVMaxAngle: 89
  m_LightmapParameters: {fileID: 0}
  m_SortingLayerID: 0
  m_SortingLayer: 0
  m_SortingOrder: 0
--- !u!1001 &429076701456063052
PrefabInstance:
  m_ObjectHideFlags: 0
  serializedVersion: 2
  m_Modification:
    m_TransformParent: {fileID: 0}
    m_Modifications:
    - target: {fileID: 5496806344442118251, guid: adf0301357b218f4ebdf3ff77ac4653c,
        type: 3}
      propertyPath: m_Name
      value: Fern
      objectReference: {fileID: 0}
    - target: {fileID: 5496806344442118251, guid: adf0301357b218f4ebdf3ff77ac4653c,
        type: 3}
      propertyPath: m_TagString
      value: Plant
      objectReference: {fileID: 0}
    - target: {fileID: 8796600892829790840, guid: adf0301357b218f4ebdf3ff77ac4653c,
        type: 3}
      propertyPath: m_LocalPosition.x
      value: 0
      objectReference: {fileID: 0}
    - target: {fileID: 8796600892829790840, guid: adf0301357b218f4ebdf3ff77ac4653c,
        type: 3}
      propertyPath: m_LocalPosition.y
      value: 0
      objectReference: {fileID: 0}
    - target: {fileID: 8796600892829790840, guid: adf0301357b218f4ebdf3ff77ac4653c,
        type: 3}
      propertyPath: m_LocalPosition.z
      value: 0
      objectReference: {fileID: 0}
    - target: {fileID: 8796600892829790840, guid: adf0301357b218f4ebdf3ff77ac4653c,
        type: 3}
      propertyPath: m_LocalRotation.x
      value: 0
      objectReference: {fileID: 0}
    - target: {fileID: 8796600892829790840, guid: adf0301357b218f4ebdf3ff77ac4653c,
        type: 3}
      propertyPath: m_LocalRotation.y
      value: 0
      objectReference: {fileID: 0}
    - target: {fileID: 8796600892829790840, guid: adf0301357b218f4ebdf3ff77ac4653c,
        type: 3}
      propertyPath: m_LocalRotation.z
      value: 0
      objectReference: {fileID: 0}
    - target: {fileID: 8796600892829790840, guid: adf0301357b218f4ebdf3ff77ac4653c,
        type: 3}
      propertyPath: m_LocalRotation.w
      value: 1
      objectReference: {fileID: 0}
    - target: {fileID: 8796600892829790840, guid: adf0301357b218f4ebdf3ff77ac4653c,
        type: 3}
      propertyPath: m_RootOrder
      value: 0
      objectReference: {fileID: 0}
    - target: {fileID: 8796600892829790840, guid: adf0301357b218f4ebdf3ff77ac4653c,
        type: 3}
      propertyPath: m_LocalEulerAnglesHint.x
      value: 0
      objectReference: {fileID: 0}
    - target: {fileID: 8796600892829790840, guid: adf0301357b218f4ebdf3ff77ac4653c,
        type: 3}
      propertyPath: m_LocalEulerAnglesHint.y
      value: 0
      objectReference: {fileID: 0}
    - target: {fileID: 8796600892829790840, guid: adf0301357b218f4ebdf3ff77ac4653c,
        type: 3}
      propertyPath: m_LocalEulerAnglesHint.z
      value: 0
      objectReference: {fileID: 0}
    - target: {fileID: 5702187002428674856, guid: adf0301357b218f4ebdf3ff77ac4653c,
        type: 3}
      propertyPath: m_LocalRotation.x
      value: -0.7071068
      objectReference: {fileID: 0}
    - target: {fileID: 5702187002428674856, guid: adf0301357b218f4ebdf3ff77ac4653c,
        type: 3}
      propertyPath: m_LocalRotation.w
      value: 0.7071068
      objectReference: {fileID: 0}
    - target: {fileID: 5702187002428674856, guid: adf0301357b218f4ebdf3ff77ac4653c,
        type: 3}
      propertyPath: m_LocalEulerAnglesHint.x
      value: -90
      objectReference: {fileID: 0}
    m_RemovedComponents: []
  m_SourcePrefab: {fileID: 100100000, guid: adf0301357b218f4ebdf3ff77ac4653c, type: 3}
--- !u!1 &928925201990875272 stripped
GameObject:
  m_CorrespondingSourceObject: {fileID: 653116986015720132, guid: adf0301357b218f4ebdf3ff77ac4653c,
    type: 3}
  m_PrefabInstance: {fileID: 429076701456063052}
  m_PrefabAsset: {fileID: 0}
